1.5K ./index.html
2.5K ./sysinfo_page
3.5K ./test/small.txt
5.0K ./test/three.txt

.:
total 11K
   0 tmp.txt
   0 test
 512 5.sh
 512 6.sh
 512 readCh
 512 lrvar
 512 menu
1.0K lr1
1.0K cgcc
1.0K 7.sh
1.0K error
1.5K index.html
2.5K sysinfo_page
